<?xml version="1.0" encoding="UTF-8" standalone="no"?>
<!-- Created with Inkscape (http://www.inkscape.org/) -->

<svg
   xmlns:dc="http://purl.org/dc/elements/1.1/"
   xmlns:cc="http://creativecommons.org/ns#"
   xmlns:rdf="http://www.w3.org/1999/02/22-rdf-syntax-ns#"
   xmlns:svg="http://www.w3.org/2000/svg"
   xmlns="http://www.w3.org/2000/svg"
   xmlns:xlink="http://www.w3.org/1999/xlink"
   xmlns:sodipodi="http://sodipodi.sourceforge.net/DTD/sodipodi-0.dtd"
   xmlns:inkscape="http://www.inkscape.org/namespaces/inkscape"
   width="48"
   height="48"
   id="svg2"
   version="1.1"
   inkscape:version="0.48+devel r12012"
   sodipodi:docname="clock.svg">
  <defs
     id="defs4">
    <linearGradient
       id="linearGradient1420"
       y2="745.97"
       gradientUnits="userSpaceOnUse"
       x2="190.87"
       y1="715.69"
       x1="177.02">
      <stop
         id="stop1422"
         style="stop-color:#1a1a1a;stop-opacity:1"
         offset="0" />
      <stop
         id="stop1424"
         style="stop-color:#000000;stop-opacity:1"
         offset="1" />
    </linearGradient>
    <linearGradient
       x1="177.02"
       y1="715.69"
       x2="190.87"
       gradientUnits="userSpaceOnUse"
       y2="745.97"
       id="linearGradient1033">
      <stop
         offset="0"
         style="stop-color:#e6e6e6;stop-opacity:1"
         id="stop1035" />
      <stop
         offset="1"
         style="stop-color:#b1b1b1;stop-opacity:1"
         id="stop1037" />
    </linearGradient>
    <radialGradient
       inkscape:collect="always"
       xlink:href="#linearGradient1420"
       id="radialGradient1418"
       gradientUnits="userSpaceOnUse"
       cx="24"
       cy="-1028.3622"
       fx="24"
       fy="-1028.3622"
       r="24"
       gradientTransform="matrix(0.91543518,0,0,0.91543518,2.0295568,-86.963309)" />
    <linearGradient
       inkscape:collect="always"
       xlink:href="#linearGradient1033"
       id="linearGradient1427"
       x1="25.63262"
       y1="-1004.6741"
       x2="25.63262"
       y2="-1052.0503"
       gradientUnits="userSpaceOnUse" />
  </defs>
  <sodipodi:namedview
     id="base"
     pagecolor="#ffffff"
     bordercolor="#666666"
     borderopacity="1.0"
     inkscape:pageopacity="0.0"
     inkscape:pageshadow="2"
     inkscape:zoom="2.8284273"
     inkscape:cx="-89.9485"
     inkscape:cy="41.278397"
     inkscape:document-units="px"
     inkscape:current-layer="layer1"
     showgrid="false"
     inkscape:window-width="1366"
     inkscape:window-height="718"
     inkscape:window-x="0"
     inkscape:window-y="28"
     inkscape:window-maximized="1">
    <inkscape:grid
       type="xygrid"
       id="grid3850" />
  </sodipodi:namedview>
  <metadata
     id="metadata7">
    <rdf:RDF>
      <cc:Work
         rdf:about="">
        <dc:format>image/svg+xml</dc:format>
        <dc:type
           rdf:resource="http://purl.org/dc/dcmitype/StillImage" />
        <dc:title />
      </cc:Work>
    </rdf:RDF>
  </metadata>
  <g
     inkscape:label="Capa 1"
     inkscape:groupmode="layer"
     id="layer1"
     transform="translate(0,-1004.3622)">
    <rect
       style="fill:url(#linearGradient1427);fill-opacity:1;stroke:none"
       id="rect2991"
       width="48"
       height="48"
       x="0"
       y="-1052.3622"
       ry="1.9445436"
       transform="scale(1,-1)" />
    <rect
       transform="scale(1,-1)"
       ry="1.7801037"
       y="-1050.3326"
       x="2.0295568"
       height="43.940887"
       width="43.940887"
       id="rect1416"
       style="fill:url(#radialGradient1418);fill-opacity:1;stroke:#7d7d7d;stroke-width:0.65911329;stroke-miterlimit:4;stroke-opacity:1;stroke-dasharray:none" />
    <g
       id="g1458">
      <path
         sodipodi:type="arc"
         style="fill:#00508c;fill-opacity:1;stroke:none"
         id="path1445"
         sodipodi:cx="21.389978"
         sodipodi:cy="23.604816"
         sodipodi:rx="2.4748735"
         sodipodi:ry="2.4748735"
         d="m 23.864852,23.604816 c 0,1.366835 -1.108039,2.474874 -2.474874,2.474874 -1.366835,0 -2.474873,-1.108039 -2.474873,-2.474874 0,-1.366834 1.108038,-2.474873 2.474873,-2.474873 C 22.756813,21.129943 23.864852,22.237982 23.864852,23.604816 Z"
         transform="matrix(0.74107142,0,0,0.74107142,8.1484988,1010.8693)" />
      <path
         inkscape:connector-curvature="0"
         id="rect1451"
         d="m 11.734375,1016.6122 c -0.104053,0 -0.201519,0.014 -0.28125,0.094 l -0.15625,0.1875 c -0.159461,0.1595 -0.159461,0.403 0,0.5625 l 12.4375,12.4688 c 0.07973,0.08 0.208447,0.125 0.3125,0.125 0.01009,0 0.02109,0 0.03125,0 0.02745,0 0.0359,-0.023 0.0625,-0.031 0.0097,0 0.02191,0 0.03125,0 0.03026,-0.012 0.06653,-0.043 0.09375,-0.062 l 0.0625,-0.031 0.15625,-0.1563 c 0.03986,-0.04 0.07382,-0.1073 0.09375,-0.1562 l 6.71875,-6.6875 c 0.09027,-0.09 0.09027,-0.2223 0,-0.3125 l -0.40625,-0.4375 c -0.09027,-0.09 -0.253479,-0.09 -0.34375,0 l -6.53125,6.5312 -11.96875,-12 C 11.967144,1016.6262 11.838428,1016.6122 11.734375,1016.6122 Z"
         style="fill:#00508c;fill-opacity:1;stroke:none" />
      <path
         transform="matrix(0.48229678,0,0,0.48229678,13.683683,1016.9777)"
         d="m 23.864852,23.604816 c 0,1.366835 -1.108039,2.474874 -2.474874,2.474874 -1.366835,0 -2.474873,-1.108039 -2.474873,-2.474874 0,-1.366834 1.108038,-2.474873 2.474873,-2.474873 C 22.756813,21.129943 23.864852,22.237982 23.864852,23.604816 Z"
         sodipodi:ry="2.4748735"
         sodipodi:rx="2.4748735"
         sodipodi:cy="23.604816"
         sodipodi:cx="21.389978"
         id="path1429"
         style="fill:#4dc5ff;fill-opacity:1;stroke:none"
         sodipodi:type="arc" />
    </g>
    <g
       id="g1486"
       transform="translate(-2.2860718e-8,-0.31193208)">
      <path
         transform="matrix(0.83870968,0,0,0.83870968,-1.8350565,1004.5997)"
         d="m 32.173356,6.6784492 c 0,0.7566407 -0.613378,1.3700193 -1.370019,1.3700193 -0.756641,0 -1.370019,-0.6133786 -1.370019,-1.3700193 0,-0.7566408 0.613378,-1.3700194 1.370019,-1.3700194 C 31.559978,5.3084298 32.173356,5.9218084 32.173356,6.6784492 Z"
         sodipodi:ry="1.3700193"
         sodipodi:rx="1.3700193"
         sodipodi:cy="6.6784492"
         sodipodi:cx="30.803337"
         id="path1466"
         style="fill:#ececec;fill-opacity:1;stroke:none"
         sodipodi:type="arc" />
      <path
         sodipodi:type="arc"
         style="fill:#ececec;fill-opacity:1;stroke:none"
         id="path1468"
         sodipodi:cx="30.803337"
         sodipodi:cy="6.6784492"
         sodipodi:rx="1.3700193"
         sodipodi:ry="1.3700193"
         d="m 32.173356,6.6784492 c 0,0.7566407 -0.613378,1.3700193 -1.370019,1.3700193 -0.756641,0 -1.370019,-0.6133786 -1.370019,-1.3700193 0,-0.7566408 0.613378,-1.3700194 1.370019,-1.3700194 C 31.559978,5.3084298 32.173356,5.9218084 32.173356,6.6784492 Z"
         transform="matrix(0.83870968,0,0,0.83870968,-1.8350565,1041.546)" />
    </g>
    <path
       transform="matrix(0,0.83870968,-0.83870968,0,48.07443,1002.5271)"
       d="m 32.173356,6.6784492 c 0,0.7566407 -0.613378,1.3700193 -1.370019,1.3700193 -0.756641,0 -1.370019,-0.6133786 -1.370019,-1.3700193 0,-0.7566408 0.613378,-1.3700194 1.370019,-1.3700194 C 31.559978,5.3084298 32.173356,5.9218084 32.173356,6.6784492 Z"
       sodipodi:ry="1.3700193"
       sodipodi:rx="1.3700193"
       sodipodi:cy="6.6784492"
       sodipodi:cx="30.803337"
       id="path1470"
       style="fill:#ccff00;fill-opacity:1;stroke:none"
       sodipodi:type="arc" />
    <path
       sodipodi:type="arc"
       style="fill:#ececec;fill-opacity:1;stroke:none"
       id="path1472"
       sodipodi:cx="30.803337"
       sodipodi:cy="6.6784492"
       sodipodi:rx="1.3700193"
       sodipodi:ry="1.3700193"
       d="m 32.173356,6.6784492 c 0,0.7566407 -0.613378,1.3700193 -1.370019,1.3700193 -0.756641,0 -1.370019,-0.6133786 -1.370019,-1.3700193 0,-0.7566408 0.613378,-1.3700194 1.370019,-1.3700194 C 31.559978,5.3084298 32.173356,5.9218084 32.173356,6.6784492 Z"
       transform="matrix(0,0.83870968,-0.83870968,0,11.12813,1002.5271)" />
    <g
       id="g1494"
       transform="translate(0,-0.31194303)">
      <path
         transform="matrix(-0.5930573,0.5930573,-0.5930573,-0.5930573,59.291337,1027.4292)"
         d="m 32.173356,6.6784492 c 0,0.7566407 -0.613378,1.3700193 -1.370019,1.3700193 -0.756641,0 -1.370019,-0.6133786 -1.370019,-1.3700193 0,-0.7566408 0.613378,-1.3700194 1.370019,-1.3700194 C 31.559978,5.3084298 32.173356,5.9218084 32.173356,6.6784492 Z"
         sodipodi:ry="1.3700193"
         sodipodi:rx="1.3700193"
         sodipodi:cy="6.6784492"
         sodipodi:cx="30.803337"
         id="path1474"
         style="fill:#ececec;fill-opacity:1;stroke:none"
         sodipodi:type="arc" />
      <path
         sodipodi:type="arc"
         style="fill:#ececec;fill-opacity:1;stroke:none"
         id="path1476"
         sodipodi:cx="30.803337"
         sodipodi:cy="6.6784492"
         sodipodi:rx="1.3700193"
         sodipodi:ry="1.3700193"
         d="m 32.173356,6.6784492 c 0,0.7566407 -0.613378,1.3700193 -1.370019,1.3700193 -0.756641,0 -1.370019,-0.6133786 -1.370019,-1.3700193 0,-0.7566408 0.613378,-1.3700194 1.370019,-1.3700194 C 31.559978,5.3084298 32.173356,5.9218084 32.173356,6.6784492 Z"
         transform="matrix(-0.5930573,0.5930573,-0.5930573,-0.5930573,33.166357,1001.3042)" />
    </g>
    <g
       id="g1490"
       transform="translate(0,-0.31195517)">
      <path
         sodipodi:type="arc"
         style="fill:#ececec;fill-opacity:1;stroke:none"
         id="path1478"
         sodipodi:cx="30.803337"
         sodipodi:cy="6.6784492"
         sodipodi:rx="1.3700193"
         sodipodi:ry="1.3700193"
         d="m 32.173356,6.6784492 c 0,0.7566407 -0.613378,1.3700193 -1.370019,1.3700193 -0.756641,0 -1.370019,-0.6133786 -1.370019,-1.3700193 0,-0.7566408 0.613378,-1.3700194 1.370019,-1.3700194 C 31.559978,5.3084298 32.173356,5.9218084 32.173356,6.6784492 Z"
         transform="matrix(-0.5930573,-0.5930573,0.5930573,-0.5930573,25.244941,1063.9655)" />
      <path
         transform="matrix(-0.5930573,-0.5930573,0.5930573,-0.5930573,51.369941,1037.8405)"
         d="m 32.173356,6.6784492 c 0,0.7566407 -0.613378,1.3700193 -1.370019,1.3700193 -0.756641,0 -1.370019,-0.6133786 -1.370019,-1.3700193 0,-0.7566408 0.613378,-1.3700194 1.370019,-1.3700194 C 31.559978,5.3084298 32.173356,5.9218084 32.173356,6.6784492 Z"
         sodipodi:ry="1.3700193"
         sodipodi:rx="1.3700193"
         sodipodi:cy="6.6784492"
         sodipodi:cx="30.803337"
         id="path1480"
         style="fill:#ececec;fill-opacity:1;stroke:none"
         sodipodi:type="arc" />
    </g>
    <path
       inkscape:connector-curvature="0"
       style="fill:#000000;fill-opacity:0.25490196;stroke:none"
       d="m 1.9375,1004.3622 c -1.077278,0 -1.9375,0.8602 -1.9375,1.9375 l 0,44.125 c 0,1.0773 0.860222,1.9375 1.9375,1.9375 l 44.125,0 c 1.077277,0 1.9375,-0.8602 1.9375,-1.9375 l 0,-44.125 c 0,-1.0773 -0.860223,-1.9375 -1.9375,-1.9375 L 1.9375,1004.3622 z m 0.59375,0.6563 42.9375,0 c 1.048101,0 1.875,0.8268 1.875,1.875 l 0,42.9375 c 0,1.0481 -0.826899,1.875 -1.875,1.875 l -42.9375,0 c -1.048101,0 -1.875,-0.8269 -1.875,-1.875 l 0,-42.9375 C 0.65625,1005.8453 1.483149,1005.0185 2.53125,1005.0185 Z"
       id="rect4280" />
    <path
       style="fill:#ffffff;stroke:none;fill-opacity:1;opacity:0.15"
       d="M 0 0 L 0 48 L 16.78125 48 L 29.625 0 L 0 0 z "
       transform="translate(0,1004.3622)"
       id="rect3790" />
  </g>
</svg>
