<?xml version="1.0" encoding="UTF-8" standalone="no"?>
<!-- Created with Inkscape (http://www.inkscape.org/) -->

<svg
   xmlns:dc="http://purl.org/dc/elements/1.1/"
   xmlns:cc="http://creativecommons.org/ns#"
   xmlns:rdf="http://www.w3.org/1999/02/22-rdf-syntax-ns#"
   xmlns:svg="http://www.w3.org/2000/svg"
   xmlns="http://www.w3.org/2000/svg"
   xmlns:xlink="http://www.w3.org/1999/xlink"
   xmlns:sodipodi="http://sodipodi.sourceforge.net/DTD/sodipodi-0.dtd"
   xmlns:inkscape="http://www.inkscape.org/namespaces/inkscape"
   width="48"
   height="48"
   id="svg2"
   version="1.1"
   inkscape:version="0.48+devel r12012"
   sodipodi:docname="evolution.svg">
  <defs
     id="defs4">
    <linearGradient
       id="linearGradient3858">
      <stop
         style="stop-color:#b7b7b7;stop-opacity:1;"
         offset="0"
         id="stop3860" />
      <stop
         style="stop-color:#feb81e;stop-opacity:1;"
         offset="1"
         id="stop3862" />
    </linearGradient>
    <linearGradient
       id="linearGradient3932">
      <stop
         id="stop3934"
         offset="0"
         style="stop-color:#b7b7b7;stop-opacity:0.41489363;" />
      <stop
         id="stop3936"
         offset="1"
         style="stop-color:#000000;stop-opacity:0;" />
    </linearGradient>
    <linearGradient
       id="linearGradient3896">
      <stop
         style="stop-color:#a9a9a9;stop-opacity:0.31914893;"
         offset="0"
         id="stop3898" />
      <stop
         style="stop-color:#000000;stop-opacity:0;"
         offset="1"
         id="stop3900" />
    </linearGradient>
    <linearGradient
       id="linearGradient3874">
      <stop
         id="stop3876"
         offset="0"
         style="stop-color:#d0d0d0;stop-opacity:1;" />
      <stop
         id="stop3878"
         offset="1"
         style="stop-color:#ffffff;stop-opacity:1;" />
    </linearGradient>
    <linearGradient
       id="linearGradient3846">
      <stop
         id="stop3848"
         offset="0"
         style="stop-color:#e8bf64;stop-opacity:1;" />
      <stop
         id="stop3850"
         offset="1"
         style="stop-color:#fe9e1e;stop-opacity:1;" />
    </linearGradient>
    <linearGradient
       id="linearGradient3810">
      <stop
         style="stop-color:#b6b6b6;stop-opacity:1;"
         offset="0"
         id="stop3812" />
      <stop
         style="stop-color:#ececec;stop-opacity:1;"
         offset="1"
         id="stop3814" />
    </linearGradient>
    <linearGradient
       inkscape:collect="always"
       xlink:href="#linearGradient3810"
       id="linearGradient3801"
       x1="23.204165"
       y1="1053.158"
       x2="23.204165"
       y2="1004.8474"
       gradientUnits="userSpaceOnUse" />
    <linearGradient
       inkscape:collect="always"
       xlink:href="#linearGradient3874"
       id="linearGradient3872"
       gradientUnits="userSpaceOnUse"
       x1="23.204165"
       y1="1053.158"
       x2="23.204165"
       y2="1004.8474"
       gradientTransform="matrix(1,0,0,0.58854167,0,433.00319)" />
    <linearGradient
       inkscape:collect="always"
       xlink:href="#linearGradient3846"
       id="linearGradient3883"
       gradientUnits="userSpaceOnUse"
       x1="23.204165"
       y1="1053.158"
       x2="23.204165"
       y2="1004.8474"
       gradientTransform="matrix(0.91666666,0,0,0.91145833,2,93.177901)" />
    <radialGradient
       inkscape:collect="always"
       xlink:href="#linearGradient3896"
       id="radialGradient3902"
       cx="16.4375"
       cy="38.4375"
       fx="16.4375"
       fy="38.4375"
       r="6.3125"
       gradientUnits="userSpaceOnUse"
       gradientTransform="matrix(1.7283694,0.06726717,-0.03960396,1.0175882,-10.693324,1002.4797)" />
    <radialGradient
       inkscape:collect="always"
       xlink:href="#linearGradient3896"
       id="radialGradient3906"
       gradientUnits="userSpaceOnUse"
       gradientTransform="matrix(1.7283694,-0.06726717,-0.03960396,-1.0175882,5.181676,1082.4322)"
       cx="16.4375"
       cy="38.4375"
       fx="16.4375"
       fy="38.4375"
       r="6.3125" />
    <radialGradient
       inkscape:collect="always"
       xlink:href="#linearGradient3932"
       id="radialGradient3930"
       gradientUnits="userSpaceOnUse"
       gradientTransform="matrix(5.0156038,0,1.2043373e-8,1.3769875,-77.433731,979.29063)"
       cx="16.848967"
       cy="39.346973"
       fx="16.848967"
       fy="39.346973"
       r="6.3125" />
    <radialGradient
       inkscape:collect="always"
       xlink:href="#linearGradient3932"
       id="radialGradient3816"
       gradientUnits="userSpaceOnUse"
       gradientTransform="matrix(-6.2257818,0,0,1.1537804,145.86159,988.07311)"
       cx="16.848967"
       cy="39.346973"
       fx="16.848967"
       fy="39.346973"
       r="6.3125" />
    <filter
       inkscape:collect="always"
       id="filter3821">
      <feGaussianBlur
         inkscape:collect="always"
         stdDeviation="0.22309004"
         id="feGaussianBlur3823" />
    </filter>
    <linearGradient
       inkscape:collect="always"
       xlink:href="#linearGradient3858"
       id="linearGradient3329"
       gradientUnits="userSpaceOnUse"
       gradientTransform="matrix(0.19133117,0,0,0.18423097,-49.727597,977.93353)"
       x1="479.51547"
       y1="191.57246"
       x2="475.51288"
       y2="195.72931" />
  </defs>
  <sodipodi:namedview
     id="base"
     pagecolor="#ffffff"
     bordercolor="#666666"
     borderopacity="1.0"
     inkscape:pageopacity="0.0"
     inkscape:pageshadow="2"
     inkscape:zoom="5.656854"
     inkscape:cx="-50.002924"
     inkscape:cy="40.315162"
     inkscape:document-units="px"
     inkscape:current-layer="layer1"
     showgrid="false"
     inkscape:window-width="1366"
     inkscape:window-height="718"
     inkscape:window-x="0"
     inkscape:window-y="28"
     inkscape:window-maximized="1">
    <inkscape:grid
       type="xygrid"
       id="grid3850" />
  </sodipodi:namedview>
  <metadata
     id="metadata7">
    <rdf:RDF>
      <cc:Work
         rdf:about="">
        <dc:format>image/svg+xml</dc:format>
        <dc:type
           rdf:resource="http://purl.org/dc/dcmitype/StillImage" />
        <dc:title />
      </cc:Work>
    </rdf:RDF>
  </metadata>
  <g
     inkscape:label="Capa 1"
     inkscape:groupmode="layer"
     id="layer1"
     transform="translate(0,-1004.3622)">
    <rect
       style="fill:url(#linearGradient3801);fill-opacity:1.0;stroke:none"
       id="rect2991"
       width="48"
       height="48"
       x="0"
       y="1004.3622"
       ry="1.9445436" />
    <rect
       style="opacity:0.17;fill:#000000;fill-opacity:1;stroke:none;filter:url(#filter3821)"
       id="rect3046"
       width="45.5"
       height="43.75"
       x="1.25"
       y="1008.6122"
       ry="1.7723705"
       transform="matrix(1,0,0,1.0226061,0,-23.789815)" />
    <rect
       ry="1.7723705"
       y="1008.6122"
       x="2"
       height="43.75"
       width="44"
       id="rect3881"
       style="fill:url(#linearGradient3883);fill-opacity:1;stroke:none" />
    <path
       style="fill:url(#linearGradient3872);fill-opacity:1;stroke:none"
       d="M 1.1444449,1024.1122 24,1036.7372 46.855555,1024.1122 C 47.410535,1023.8056 48,1024.6226 48,1025.2566 l 0,25.9611 c 0,0.6341 -0.510422,1.1445 -1.144445,1.1445 l -45.7111101,0 C 0.51042244,1052.3622 0,1051.8518 0,1051.2177 l 0,-25.9611 c 0,-0.634 0.51042244,-1.1444 1.1444449,-1.1444 z"
       id="rect3870"
       inkscape:connector-curvature="0"
       sodipodi:nodetypes="scssssssss" />
    <path
       sodipodi:nodetypes="cc"
       inkscape:connector-curvature="0"
       id="path3904"
       d="M 40.003241,1050.1467 24.621759,1034.7652"
       style="fill:none;stroke:url(#radialGradient3906);stroke-width:0.3;stroke-linecap:butt;stroke-linejoin:miter;stroke-miterlimit:4;stroke-opacity:1;stroke-dasharray:none" />
    <path
       style="fill:none;stroke:url(#radialGradient3902);stroke-width:0.3;stroke-linecap:butt;stroke-linejoin:miter;stroke-miterlimit:4;stroke-opacity:1;stroke-dasharray:none"
       d="M 24.128241,1034.7652 8.7467592,1050.1467"
       id="path3885"
       inkscape:connector-curvature="0"
       sodipodi:nodetypes="cc" />
    <g
       style="font-size:18.62982178px;font-style:normal;font-variant:normal;font-weight:bold;font-stretch:normal;line-height:125%;letter-spacing:0px;word-spacing:0px;fill:#ffffff;fill-opacity:1;stroke:none;font-family:Decker;-inkscape-font-specification:Decker Bold"
       id="text3924">
      <path
         d="m 21.616693,1020.5553 c -7e-6,0.8672 0.215279,1.5495 0.645858,2.0467 0.430564,0.4913 1.021842,0.7369 1.773835,0.7369 0.745911,0 1.331124,-0.2487 1.755643,-0.7459 0.43056,-0.4973 0.645846,-1.1765 0.645858,-2.0377 -1.2e-5,-0.849 -0.21833,-1.5221 -0.654955,-2.0194 -0.436647,-0.5034 -1.024893,-0.755 -1.764739,-0.755 -0.7338,0 -1.319014,0.2486 -1.755642,0.7459 -0.430579,0.4973 -0.645865,1.1734 -0.645858,2.0285 m 4.957643,2.7199 c -0.363876,0.467 -0.782318,0.8126 -1.25533,1.037 -0.466969,0.2183 -1.012764,0.3275 -1.637387,0.3275 -1.043084,0 -1.892098,-0.376 -2.547046,-1.128 -0.648896,-0.758 -0.973341,-1.7435 -0.973335,-2.9564 -6e-6,-1.2129 0.327471,-2.1983 0.982432,-2.9564 0.654947,-0.758 1.50093,-1.137 2.537949,-1.1371 0.624623,10e-5 1.173451,0.1153 1.646484,0.3457 0.473011,0.2244 0.888422,0.567 1.246233,1.0279 l 0,-1.1916 1.300812,0 0,6.6951 c 0.885388,-0.1334 1.576728,-0.5367 2.074024,-1.2099 0.503329,-0.6792 0.755001,-1.5555 0.755017,-2.6289 -1.6e-5,-0.6489 -0.09705,-1.2583 -0.291091,-1.8284 -0.188012,-0.57 -0.47607,-1.0977 -0.864176,-1.5828 -0.630712,-0.7944 -1.400889,-1.4009 -2.310535,-1.8193 -0.903607,-0.4245 -1.88907,-0.6368 -2.956393,-0.6368 -0.745929,0 -1.461527,0.1001 -2.146795,0.3002 -0.685284,0.1941 -1.319013,0.4852 -1.901188,0.8733 -0.952115,0.6185 -1.698035,1.4312 -2.237762,2.4379 -0.53367,1.0006 -0.800503,2.0861 -0.8005,3.2565 -3e-6,0.9643 0.172832,1.8679 0.518505,2.7108 0.351732,0.843 0.858108,1.5859 1.519131,2.2287 0.636757,0.6307 1.37358,1.1098 2.210472,1.4372 0.836879,0.3336 1.731377,0.5004 2.683495,0.5004 0.782297,0 1.549442,-0.1335 2.301438,-0.4003 0.758037,-0.2608 1.45241,-0.6368 2.08312,-1.128 l 0.818693,1.0098 c -0.758063,0.5882 -1.585852,1.037 -2.483369,1.3462 -0.891478,0.3154 -1.798104,0.4731 -2.719882,0.4731 -1.121921,0 -2.180157,-0.2002 -3.174711,-0.6004 -0.994566,-0.3942 -1.879966,-0.9703 -2.656205,-1.7284 -0.776245,-0.758 -1.367523,-1.6343 -1.773835,-2.6289 -0.406316,-1.0006 -0.609473,-2.074 -0.609472,-3.2202 -10e-7,-1.1037 0.206188,-2.1558 0.618568,-3.1565 0.412377,-1.0006 1.000623,-1.8799 1.764739,-2.638 0.782303,-0.7702 1.685897,-1.3584 2.710785,-1.7647 1.024875,-0.4124 2.110401,-0.6186 3.25658,-0.6186 1.285641,0 2.477294,0.2638 3.574961,0.7914 1.103706,0.5276 2.028525,1.2766 2.774461,2.2469 0.454813,0.5943 0.800483,1.2401 1.037011,1.9375 0.242559,0.6974 0.363847,1.4191 0.363864,2.165 -1.7e-5,1.595 -0.482136,2.8533 -1.446358,3.7751 -0.964254,0.9218 -2.295387,1.4009 -3.993404,1.4373 l 0,-1.4009"
         style="font-weight:normal;-inkscape-font-specification:Decker"
         id="path3070" />
    </g>
    <path
       sodipodi:nodetypes="cc"
       inkscape:connector-curvature="0"
       id="path3928"
       d="M 23.787607,1039.71 0,1025.3622"
       style="fill:none;stroke:url(#radialGradient3930);stroke-width:0.30000000999999998;stroke-linecap:butt;stroke-linejoin:miter;stroke-miterlimit:4;stroke-opacity:1;stroke-dasharray:none" />
    <path
       style="fill:none;stroke:url(#radialGradient3816);stroke-width:0.30000000999999998;stroke-linecap:butt;stroke-linejoin:miter;stroke-miterlimit:4;stroke-opacity:1;stroke-dasharray:none"
       d="m 24.25,1039.71 23.787607,-14.3478"
       id="path3814"
       inkscape:connector-curvature="0"
       sodipodi:nodetypes="cc" />
    <path
       sodipodi:nodetypes="cccccc"
       inkscape:connector-curvature="0"
       id="path3283"
       d="m 31.755229,1008.6115 c 6.967516,2.5078 3.438441,9.9421 3.438441,9.9421 2.903791,-2.0897 9.465973,-1.1905 10.812292,-0.1847 l -0.0119,-3.0145 c 0.03278,-5.3925 0.401896,-6.081 -1.464245,-6.7451 z"
       style="fill:url(#linearGradient3329);fill-opacity:1;stroke:none" />
    <path
       style="fill:#bfbfbf;fill-opacity:1;stroke:none"
       d="m 36.5,4.1875 8.098731,0 c 1.915464,0.2817785 1.496886,2.6967991 1.425932,4.5638404 l -6.69e-4,4.5924096 z"
       id="path3874"
       inkscape:connector-curvature="0"
       transform="translate(0,1004.3622)"
       sodipodi:nodetypes="ccccc" />
    <path
       inkscape:connector-curvature="0"
       style="fill:#000000;fill-opacity:0.25490196;stroke:none"
       d="m 1.9375,1004.3622 c -1.077278,0 -1.9375,0.8602 -1.9375,1.9375 l 0,44.125 c 0,1.0773 0.860222,1.9375 1.9375,1.9375 l 44.125,0 c 1.077277,0 1.9375,-0.8602 1.9375,-1.9375 l 0,-44.125 c 0,-1.0773 -0.860223,-1.9375 -1.9375,-1.9375 L 1.9375,1004.3622 z m 0.59375,0.6563 42.9375,0 c 1.048101,0 1.875,0.8268 1.875,1.875 l 0,42.9375 c 0,1.0481 -0.826899,1.875 -1.875,1.875 l -42.9375,0 c -1.048101,0 -1.875,-0.8269 -1.875,-1.875 l 0,-42.9375 C 0.65625,1005.8453 1.483149,1005.0185 2.53125,1005.0185 Z"
       id="rect4280" />
    <path
       style="fill:#ffffff;stroke:none;fill-opacity:1;opacity:0.15"
       d="M 0 0 L 0 48 L 16.78125 48 L 29.625 0 L 0 0 z "
       id="rect3790"
       transform="translate(0,1004.3622)" />
  </g>
</svg>
