<?xml version="1.0" encoding="UTF-8" standalone="no"?>
<!-- Created with Inkscape (http://www.inkscape.org/) -->

<svg
   xmlns:dc="http://purl.org/dc/elements/1.1/"
   xmlns:cc="http://creativecommons.org/ns#"
   xmlns:rdf="http://www.w3.org/1999/02/22-rdf-syntax-ns#"
   xmlns:svg="http://www.w3.org/2000/svg"
   xmlns="http://www.w3.org/2000/svg"
   xmlns:xlink="http://www.w3.org/1999/xlink"
   xmlns:sodipodi="http://sodipodi.sourceforge.net/DTD/sodipodi-0.dtd"
   xmlns:inkscape="http://www.inkscape.org/namespaces/inkscape"
   width="48"
   height="48"
   id="svg2"
   version="1.1"
   inkscape:version="0.48+devel r12012"
   sodipodi:docname="gtk-info.svg">
  <defs
     id="defs4">
    <linearGradient
       id="linearGradient908">
      <stop
         style="stop-color:#00aad4;stop-opacity:1"
         offset="0"
         id="stop910" />
      <stop
         style="stop-color:#55ddff;stop-opacity:1"
         offset="1"
         id="stop912" />
    </linearGradient>
    <linearGradient
       y2="1052.2028"
       x2="27.107079"
       y1="1004.8919"
       x1="27.107079"
       gradientTransform="translate(6.5393066e-7,-2056.7244)"
       gradientUnits="userSpaceOnUse"
       id="linearGradient895"
       xlink:href="#linearGradient908"
       inkscape:collect="always" />
  </defs>
  <sodipodi:namedview
     id="base"
     pagecolor="#ffffff"
     bordercolor="#666666"
     borderopacity="1.0"
     inkscape:pageopacity="0.0"
     inkscape:pageshadow="2"
     inkscape:zoom="1.1054688"
     inkscape:cx="-360.62507"
     inkscape:cy="133.60988"
     inkscape:document-units="px"
     inkscape:current-layer="layer1"
     showgrid="false"
     inkscape:window-width="1366"
     inkscape:window-height="718"
     inkscape:window-x="0"
     inkscape:window-y="28"
     inkscape:window-maximized="1">
    <inkscape:grid
       type="xygrid"
       id="grid3850"
       empspacing="5"
       visible="true"
       enabled="true"
       snapvisiblegridlinesonly="true" />
  </sodipodi:namedview>
  <metadata
     id="metadata7">
    <rdf:RDF>
      <cc:Work
         rdf:about="">
        <dc:format>image/svg+xml</dc:format>
        <dc:type
           rdf:resource="http://purl.org/dc/dcmitype/StillImage" />
        <dc:title />
      </cc:Work>
    </rdf:RDF>
  </metadata>
  <g
     inkscape:label="Capa 1"
     inkscape:groupmode="layer"
     id="layer1"
     transform="translate(0,-1004.3622)">
    <g
       id="g875"
       transform="translate(94.840601,-7.0494093)">
      <g
         transform="translate(-94.840601,7.0494359)"
         inkscape:label="Capa 1"
         id="layer1-5">
        <rect
           style="fill:url(#linearGradient895);fill-opacity:1;stroke:none"
           id="rect2991-1"
           width="48"
           height="48"
           x="0"
           y="-1052.3622"
           ry="1.9445436"
           transform="scale(1,-1)" />
      </g>
      <path
         id="rect4280-0"
         d="m -92.903101,1011.4116 c -1.077277,0 -1.9375,0.8602 -1.9375,1.9375 l 0,44.125 c 0,1.0773 0.860223,1.9375 1.9375,1.9375 l 44.125,0 c 1.077277,0 1.9375,-0.8602 1.9375,-1.9375 l 0,-44.125 c 0,-1.0773 -0.860223,-1.9375 -1.9375,-1.9375 L -92.903101,1011.4116 z m 0.59375,0.6563 42.9375,0 c 1.048101,0 1.875,0.8268 1.875,1.875 l 0,42.9375 c 0,1.0481 -0.826899,1.875 -1.875,1.875 l -42.9375,0 c -1.048101,0 -1.875,-0.8269 -1.875,-1.875 l 0,-42.9375 C -94.184351,1012.8947 -93.357452,1012.0679 -92.309351,1012.0679 Z"
         style="fill:#000000;fill-opacity:0.25490196;stroke:none"
         inkscape:connector-curvature="0" />
      <g
         id="text4006-9"
         style="font-size:40px;font-style:normal;font-variant:normal;font-weight:bold;font-stretch:normal;line-height:125%;letter-spacing:0px;word-spacing:0px;fill:#ffffff;fill-opacity:1;stroke:none;font-family:Impact;-inkscape-font-specification:Impact Bold"
         transform="translate(-95.843176,1011.9726)">
        <path
           inkscape:connector-curvature="0"
           id="path4011-7"
           d="m 29.065075,7.6284599 0,4.1210941 -8.125,0 0,-4.1210941 L 29.065075,7.6284599 z m 0,5.7031251 0,25.917969 -8.125,0 0,-25.917969 L 29.065075,13.331585 Z" />
      </g>
      <path
         id="rect3790-2"
         d="m -94.840601,1011.4116 0,48 16.78125,0 12.84375,-48 L -94.840601,1011.4116 Z"
         style="opacity:0.15;fill:#ffffff;fill-opacity:1;stroke:none"
         inkscape:connector-curvature="0" />
    </g>
  </g>
</svg>
