<?xml version="1.0" encoding="UTF-8" standalone="no"?>
<!-- Created with Inkscape (http://www.inkscape.org/) -->

<svg
   xmlns:dc="http://purl.org/dc/elements/1.1/"
   xmlns:cc="http://creativecommons.org/ns#"
   xmlns:rdf="http://www.w3.org/1999/02/22-rdf-syntax-ns#"
   xmlns:svg="http://www.w3.org/2000/svg"
   xmlns="http://www.w3.org/2000/svg"
   xmlns:xlink="http://www.w3.org/1999/xlink"
   xmlns:sodipodi="http://sodipodi.sourceforge.net/DTD/sodipodi-0.dtd"
   xmlns:inkscape="http://www.inkscape.org/namespaces/inkscape"
   width="48"
   height="48"
   id="svg2"
   version="1.1"
   inkscape:version="0.48+devel r12012"
   sodipodi:docname="zenmap.svg">
  <defs
     id="defs4">
    <linearGradient
       inkscape:collect="always"
       id="linearGradient3788">
      <stop
         style="stop-color:#abc837;stop-opacity:1"
         offset="0"
         id="stop3790" />
      <stop
         style="stop-color:#bcd35f;stop-opacity:0"
         offset="1"
         id="stop3792" />
    </linearGradient>
    <linearGradient
       id="linearGradient3795">
      <stop
         style="stop-color:#000000;stop-opacity:1"
         offset="0"
         id="stop3797" />
      <stop
         id="stop3800"
         offset="1"
         style="stop-color:#333333;stop-opacity:1" />
    </linearGradient>
    <linearGradient
       inkscape:collect="always"
       xlink:href="#linearGradient3795"
       id="linearGradient3801"
       x1="23.204165"
       y1="1053.158"
       x2="23.204165"
       y2="1004.8474"
       gradientUnits="userSpaceOnUse" />
    <linearGradient
       inkscape:collect="always"
       xlink:href="#linearGradient3788"
       id="linearGradient3794"
       x1="26.162951"
       y1="14.235653"
       x2="29.875259"
       y2="26.433245"
       gradientUnits="userSpaceOnUse"
       gradientTransform="matrix(-1.0557613,1.8286322,1.8286322,1.0557613,17.36927,-45.60644)" />
  </defs>
  <sodipodi:namedview
     id="base"
     pagecolor="#ffffff"
     bordercolor="#666666"
     borderopacity="1.0"
     inkscape:pageopacity="0.0"
     inkscape:pageshadow="2"
     inkscape:zoom="4"
     inkscape:cx="-71.427404"
     inkscape:cy="44.563415"
     inkscape:document-units="px"
     inkscape:current-layer="layer1"
     showgrid="false"
     inkscape:window-width="1366"
     inkscape:window-height="718"
     inkscape:window-x="0"
     inkscape:window-y="28"
     inkscape:window-maximized="1" />
  <metadata
     id="metadata7">
    <rdf:RDF>
      <cc:Work
         rdf:about="">
        <dc:format>image/svg+xml</dc:format>
        <dc:type
           rdf:resource="http://purl.org/dc/dcmitype/StillImage" />
        <dc:title />
      </cc:Work>
    </rdf:RDF>
  </metadata>
  <g
     inkscape:label="Capa 1"
     inkscape:groupmode="layer"
     id="layer1"
     transform="translate(0,-1004.3622)">
    <rect
       style="fill:url(#linearGradient3801);fill-opacity:1;stroke:none"
       id="rect2991"
       width="48"
       height="48"
       x="0"
       y="1004.3622"
       ry="1.9445436" />
    <g
       id="g964">
      <path
         transform="translate(0,1004.3622)"
         id="path902"
         d="M 28.03125 0 C 19.214372 4.3915487 13.15625 13.48106 13.15625 24 C 13.15625 34.51894 19.214372 43.608451 28.03125 48 L 33.65625 48 C 23.002787 45.212586 15.15625 35.527349 15.15625 24 C 15.15625 12.472651 23.002787 2.7874139 33.65625 0 L 28.03125 0 z "
         style="fill:#cccccc;fill-opacity:1;stroke:none" />
      <path
         inkscape:connector-curvature="0"
         id="path912"
         d="m 39.537542,1008.7372 c -10.838588,0 -19.625,8.7864 -19.625,19.625 0,10.8386 8.786412,19.625 19.625,19.625 3.035228,0 5.896993,-0.7125 8.462458,-1.9428 l 0,-2.3378 c -2.512193,1.392 -5.386925,2.1732 -8.462458,2.1732 -9.674713,0 -17.517619,-7.8429 -17.517619,-17.5176 0,-9.6747 7.842906,-17.5176 17.517619,-17.5176 3.075533,0 5.950265,0.7812 8.462458,2.1732 l 0,-2.3378 C 45.434535,1009.4497 42.57277,1008.7372 39.537542,1008.7372 Z"
         style="fill:#cccccc;fill-opacity:1;stroke:none" />
      <path
         inkscape:connector-curvature="0"
         id="path917"
         d="m 41.067042,1015.7372 c -6.972597,0 -12.625,5.6524 -12.625,12.625 0,6.9726 5.652403,12.625 12.625,12.625 2.566399,0 4.940289,-0.7617 6.932958,-2.0772 l 0,-2.1312 c -1.883904,1.5548 -4.299612,2.4819 -6.932958,2.4819 -6.019079,0 -10.898505,-4.8795 -10.898505,-10.8985 0,-6.019 4.879426,-10.8985 10.898505,-10.8985 2.633346,0 5.049054,0.9271 6.932958,2.4819 l 0,-2.1312 C 46.007331,1016.4989 43.633441,1015.7372 41.067042,1015.7372 Z"
         style="fill:#cccccc;fill-opacity:1;stroke:none" />
      <path
         inkscape:connector-curvature="0"
         id="path3784"
         d="m 41.575585,1027.965 -26.96509,2e-4"
         style="fill:none;stroke:#ffffff;stroke-width:1.05576122;stroke-linecap:square;stroke-linejoin:miter;stroke-miterlimit:4;stroke-opacity:1;stroke-dasharray:none"
         sodipodi:nodetypes="cc" />
      <path
         sodipodi:nodetypes="cccccc"
         inkscape:connector-curvature="0"
         transform="translate(0,1004.3622)"
         id="path3786"
         d="m 15.15625,24.25 c 0.02479,2.481168 0.423765,4.86956 1.125,7.125 3.307291,7.656843 9.795315,14.04523 22.0625,10.59375 L 37.625,36.15625 C 32.404817,34.678783 28.549279,29.916567 28.4375,24.25 Z"
         style="fill:url(#linearGradient3794);fill-opacity:1;stroke:none" />
      <path
         transform="matrix(0.34693878,0,0,0.34693878,14.482143,1019.5892)"
         d="M 10.5,32.3125 C 10.5,34.003872 9.128872,35.375 7.4375,35.375 5.746128,35.375 4.375,34.003872 4.375,32.3125 4.375,30.621128 5.746128,29.25 7.4375,29.25 9.128872,29.25 10.5,30.621128 10.5,32.3125 Z"
         sodipodi:ry="3.0625"
         sodipodi:rx="3.0625"
         sodipodi:cy="32.3125"
         sodipodi:cx="7.4375"
         id="path958"
         style="fill:#ffffff;fill-opacity:1;stroke:none;opacity:0.424"
         sodipodi:type="arc" />
      <path
         sodipodi:type="arc"
         style="fill:#ffffff;fill-opacity:1;stroke:none;opacity:0.424"
         id="path960"
         sodipodi:cx="7.4375"
         sodipodi:cy="32.3125"
         sodipodi:rx="3.0625"
         sodipodi:ry="3.0625"
         d="M 10.5,32.3125 C 10.5,34.003872 9.128872,35.375 7.4375,35.375 5.746128,35.375 4.375,34.003872 4.375,32.3125 4.375,30.621128 5.746128,29.25 7.4375,29.25 9.128872,29.25 10.5,30.621128 10.5,32.3125 Z"
         transform="matrix(0.34693878,0,0,0.34693878,24.107143,1023.3392)" />
      <path
         transform="matrix(0.2244898,0,0,0.2244898,18.892857,1032.0458)"
         d="M 10.5,32.3125 C 10.5,34.003872 9.128872,35.375 7.4375,35.375 5.746128,35.375 4.375,34.003872 4.375,32.3125 4.375,30.621128 5.746128,29.25 7.4375,29.25 9.128872,29.25 10.5,30.621128 10.5,32.3125 Z"
         sodipodi:ry="3.0625"
         sodipodi:rx="3.0625"
         sodipodi:cy="32.3125"
         sodipodi:cx="7.4375"
         id="path962"
         style="fill:#ffffff;fill-opacity:1;stroke:none;opacity:0.424"
         sodipodi:type="arc" />
    </g>
    <path
       inkscape:connector-curvature="0"
       style="fill:#000000;fill-opacity:0.25490196;stroke:none"
       d="m 1.9375,1004.3622 c -1.077277,0 -1.9375,0.8602 -1.9375,1.9375 l 0,44.125 c 0,1.0773 0.860223,1.9375 1.9375,1.9375 l 44.125,0 c 1.077277,0 1.9375,-0.8602 1.9375,-1.9375 l 0,-44.125 c 0,-1.0773 -0.860223,-1.9375 -1.9375,-1.9375 L 1.9375,1004.3622 z m 0.59375,0.6563 42.9375,0 c 1.048101,0 1.875,0.8268 1.875,1.875 l 0,42.9375 c 0,1.0481 -0.826899,1.875 -1.875,1.875 l -42.9375,0 c -1.048101,0 -1.875,-0.8269 -1.875,-1.875 l 0,-42.9375 C 0.65625,1005.8453 1.483149,1005.0185 2.53125,1005.0185 Z"
       id="rect4280" />
    <path
       style="fill:#ffffff;stroke:none;fill-opacity:1;opacity:0.15"
       d="M 0 0 L 0 48 L 16.78125 48 L 29.625 0 L 0 0 z "
       id="rect3790"
       transform="translate(0,1004.3622)" />
  </g>
</svg>
