<?xml version="1.0" encoding="UTF-8" standalone="no"?>
<!-- Created with Inkscape (http://www.inkscape.org/) -->

<svg
   xmlns:dc="http://purl.org/dc/elements/1.1/"
   xmlns:cc="http://creativecommons.org/ns#"
   xmlns:rdf="http://www.w3.org/1999/02/22-rdf-syntax-ns#"
   xmlns:svg="http://www.w3.org/2000/svg"
   xmlns="http://www.w3.org/2000/svg"
   xmlns:xlink="http://www.w3.org/1999/xlink"
   xmlns:sodipodi="http://sodipodi.sourceforge.net/DTD/sodipodi-0.dtd"
   xmlns:inkscape="http://www.inkscape.org/namespaces/inkscape"
   width="48"
   height="48"
   id="svg2"
   version="1.1"
   inkscape:version="0.48+devel r12012"
   sodipodi:docname="preferences-system-network.svg">
  <defs
     id="defs4">
    <linearGradient
       inkscape:collect="always"
       xlink:href="#linearGradient3795-1"
       id="linearGradient3801"
       x1="25.679039"
       y1="1004.014"
       x2="25.679039"
       y2="1053.2842"
       gradientUnits="userSpaceOnUse"
       gradientTransform="translate(0,-2056.7244)" />
    <linearGradient
       id="linearGradient3795-1">
      <stop
         style="stop-color:#000000;stop-opacity:1;"
         offset="0"
         id="stop3797-5" />
      <stop
         style="stop-color:#5a5e60;stop-opacity:1;"
         offset="1"
         id="stop3799-9" />
    </linearGradient>
    <linearGradient
       id="linearGradient3795-4">
      <stop
         id="stop3797-3"
         offset="0"
         style="stop-color:#d0d868;stop-opacity:1;" />
      <stop
         id="stop3799-6"
         offset="1"
         style="stop-color:#87bd30;stop-opacity:1;" />
    </linearGradient>
    <linearGradient
       inkscape:collect="always"
       xlink:href="#linearGradient3795-4"
       id="linearGradient964"
       x1="31.358065"
       y1="42.767181"
       x2="31.358065"
       y2="5.9348354"
       gradientUnits="userSpaceOnUse"
       gradientTransform="matrix(0.8869258,0,0,-0.8869258,2.713781,1049.6484)" />
  </defs>
  <sodipodi:namedview
     id="base"
     pagecolor="#ffffff"
     bordercolor="#666666"
     borderopacity="1.0"
     inkscape:pageopacity="0.0"
     inkscape:pageshadow="2"
     inkscape:zoom="4.0000002"
     inkscape:cx="-37.172698"
     inkscape:cy="6.5063507"
     inkscape:document-units="px"
     inkscape:current-layer="layer1"
     showgrid="false"
     inkscape:window-width="1366"
     inkscape:window-height="718"
     inkscape:window-x="0"
     inkscape:window-y="28"
     inkscape:window-maximized="1">
    <inkscape:grid
       type="xygrid"
       id="grid3850" />
  </sodipodi:namedview>
  <metadata
     id="metadata7">
    <rdf:RDF>
      <cc:Work
         rdf:about="">
        <dc:format>image/svg+xml</dc:format>
        <dc:type
           rdf:resource="http://purl.org/dc/dcmitype/StillImage" />
        <dc:title />
      </cc:Work>
    </rdf:RDF>
  </metadata>
  <g
     inkscape:label="Capa 1"
     inkscape:groupmode="layer"
     id="layer1"
     transform="translate(0,-1004.3622)">
    <rect
       style="fill:url(#linearGradient3801);fill-opacity:1;stroke:none"
       id="rect2991"
       width="48"
       height="48"
       x="0"
       y="-1052.3622"
       ry="1.9445436"
       transform="scale(1,-1)" />
    <path
       inkscape:connector-curvature="0"
       style="fill:#000000;fill-opacity:0.25490196;stroke:none"
       d="m 1.9375002,1004.3622 c -1.07727703,0 -1.937500035,0.8602 -1.937500035,1.9375 l 0,44.125 c 0,1.0773 0.860223005,1.9375 1.937500035,1.9375 l 44.1249998,0 c 1.077277,0 1.9375,-0.8602 1.9375,-1.9375 l 0,-44.125 c 0,-1.0773 -0.860223,-1.9375 -1.9375,-1.9375 L 1.9375002,1004.3622 z m 0.59375,0.6563 42.9374998,0 c 1.048101,0 1.875,0.8268 1.875,1.875 l 0,42.9375 c 0,1.0481 -0.826899,1.875 -1.875,1.875 l -42.9374998,0 c -1.048101,0 -1.87500003,-0.8269 -1.87500003,-1.875 l 0,-42.9375 C 0.65625017,1005.8453 1.4831492,1005.0185 2.5312502,1005.0185 Z"
       id="rect4280" />
    <path
       style="fill:url(#linearGradient964);fill-opacity:1;stroke:none"
       d="m 24,1044.0497 c -8.663965,0 -15.6875,-7.0236 -15.6875,-15.6875 0,-8.6639 7.023535,-15.6875 15.6875,-15.6875 8.663965,0 15.6875,7.0236 15.6875,15.6875 C 39.6875,1037.0261 32.663965,1044.0497 24,1044.0497 z m 0,-2.6608 c 7.194459,0 13.026722,-5.8322 13.026722,-13.0267 0,-7.1945 -5.832263,-13.0267 -13.026722,-13.0267 -7.194459,0 -13.026722,5.8322 -13.026722,13.0267 C 10.973278,1035.5567 16.805541,1041.3889 24,1041.3889 z m -9.534452,-6.3194 0,-5.765 2.549912,0 0,-2.1619 0,-0.6652 6.430212,0 0,-0.9423 -2.549912,0 0,-5.765 5.765018,0 0,5.765 -2.549912,0 0,0.9423 6.430212,0 0,0.6652 0,2.1619 2.549912,0 0,5.765 -5.765018,0 0,-5.765 2.549912,0 0,-2.1619 -12.19523,0 0,2.1619 2.549912,0 0,5.765 L 14.465548,1035.0695 Z"
       id="path927"
       inkscape:connector-curvature="0" />
    <path
       style="fill:#ffffff;stroke:none;fill-opacity:1;opacity:0.15"
       d="M 0 0 L 0 48 L 16.78125 48 L 29.625 0 L 0 0 z "
       transform="translate(0,1004.3622)"
       id="rect3790" />
  </g>
</svg>
