<?xml version="1.0" encoding="UTF-8" standalone="no"?>
<!-- Created with Inkscape (http://www.inkscape.org/) -->

<svg
   xmlns:dc="http://purl.org/dc/elements/1.1/"
   xmlns:cc="http://creativecommons.org/ns#"
   xmlns:rdf="http://www.w3.org/1999/02/22-rdf-syntax-ns#"
   xmlns:svg="http://www.w3.org/2000/svg"
   xmlns="http://www.w3.org/2000/svg"
   xmlns:xlink="http://www.w3.org/1999/xlink"
   xmlns:sodipodi="http://sodipodi.sourceforge.net/DTD/sodipodi-0.dtd"
   xmlns:inkscape="http://www.inkscape.org/namespaces/inkscape"
   width="48"
   height="48"
   id="svg2"
   version="1.1"
   inkscape:version="0.48+devel r12012"
   sodipodi:docname="wine-winecfg.svg">
  <defs
     id="defs4">
    <linearGradient
       id="linearGradient3834">
      <stop
         style="stop-color:#ffffff;stop-opacity:1;"
         offset="0"
         id="stop3836" />
      <stop
         id="stop3838"
         offset="0.5"
         style="stop-color:#dadada;stop-opacity:1;" />
      <stop
         style="stop-color:#737373;stop-opacity:1;"
         offset="1"
         id="stop3840" />
    </linearGradient>
    <linearGradient
       id="linearGradient3822">
      <stop
         style="stop-color:#aaaaaa;stop-opacity:1;"
         offset="0"
         id="stop3824" />
      <stop
         id="stop3828"
         offset="0.075"
         style="stop-color:#ffffff;stop-opacity:1;" />
      <stop
         style="stop-color:#c5c5c5;stop-opacity:1;"
         offset="0.75"
         id="stop3830" />
      <stop
         style="stop-color:#000000;stop-opacity:1;"
         offset="1"
         id="stop3826" />
    </linearGradient>
    <linearGradient
       id="linearGradient3795-3">
      <stop
         id="stop3797-6"
         offset="0"
         style="stop-color:#ffffff;stop-opacity:1;" />
      <stop
         style="stop-color:#dadada;stop-opacity:1;"
         offset="0.5"
         id="stop3832" />
      <stop
         id="stop3799-7"
         offset="1"
         style="stop-color:#b6b6b6;stop-opacity:1;" />
    </linearGradient>
    <linearGradient
       gradientTransform="translate(0,-2056.7244)"
       gradientUnits="userSpaceOnUse"
       y2="1004.8474"
       x2="23.204165"
       y1="1053.158"
       x1="23.204165"
       id="linearGradient3801-7"
       xlink:href="#linearGradient3795-3"
       inkscape:collect="always" />
    <linearGradient
       gradientTransform="translate(-0.18492284,-0.88388344)"
       gradientUnits="userSpaceOnUse"
       y2="1029.0532"
       x2="25.455843"
       y1="1023.5427"
       x1="25.455843"
       id="linearGradient3804"
       xlink:href="#linearGradient3834"
       inkscape:collect="always" />
    <linearGradient
       gradientTransform="translate(-0.18492283,-0.88388344)"
       gradientUnits="userSpaceOnUse"
       y2="1043.356"
       x2="25.455843"
       y1="1032.4261"
       x1="25.455843"
       id="linearGradient3812"
       xlink:href="#linearGradient3822"
       inkscape:collect="always" />
    <linearGradient
       id="linearGradient13326"
       inkscape:collect="always">
      <stop
         id="stop13328"
         offset="0"
         style="stop-color:#f8f8f8;stop-opacity:1" />
      <stop
         id="stop13330"
         offset="1"
         style="stop-color:#454545;stop-opacity:1" />
    </linearGradient>
    <radialGradient
       inkscape:collect="always"
       xlink:href="#linearGradient13326"
       id="radialGradient2595"
       gradientUnits="userSpaceOnUse"
       gradientTransform="matrix(0.79129521,0,0,0.79129521,33.524147,1007.9784)"
       cx="4.2547331"
       cy="12.516351"
       fx="4.2547331"
       fy="12.516351"
       r="1.3479346" />
    <radialGradient
       inkscape:collect="always"
       xlink:href="#linearGradient13326"
       id="radialGradient2615"
       gradientUnits="userSpaceOnUse"
       gradientTransform="matrix(0.79129521,0,0,0.79129521,33.524147,1029.0148)"
       cx="4.2547331"
       cy="12.516351"
       fx="4.2547331"
       fy="12.516351"
       r="1.3479346" />
    <radialGradient
       inkscape:collect="always"
       xlink:href="#linearGradient13326"
       id="radialGradient1137"
       gradientUnits="userSpaceOnUse"
       gradientTransform="matrix(0.79129521,0,0,0.79129521,33.524147,1007.9784)"
       cx="4.2547331"
       cy="12.516351"
       fx="4.2547331"
       fy="12.516351"
       r="1.3479346" />
    <radialGradient
       inkscape:collect="always"
       xlink:href="#linearGradient13326"
       id="radialGradient1139"
       gradientUnits="userSpaceOnUse"
       gradientTransform="matrix(0.79129521,0,0,0.79129521,33.524147,1029.0148)"
       cx="4.2547331"
       cy="12.516351"
       fx="4.2547331"
       fy="12.516351"
       r="1.3479346" />
  </defs>
  <sodipodi:namedview
     id="base"
     pagecolor="#ffffff"
     bordercolor="#666666"
     borderopacity="1.0"
     inkscape:pageopacity="0.0"
     inkscape:pageshadow="2"
     inkscape:zoom="5.6568545"
     inkscape:cx="-23.553792"
     inkscape:cy="28.014471"
     inkscape:document-units="px"
     inkscape:current-layer="layer1"
     showgrid="false"
     inkscape:window-width="1366"
     inkscape:window-height="718"
     inkscape:window-x="0"
     inkscape:window-y="28"
     inkscape:window-maximized="1">
    <inkscape:grid
       type="xygrid"
       id="grid3850" />
  </sodipodi:namedview>
  <metadata
     id="metadata7">
    <rdf:RDF>
      <cc:Work
         rdf:about="">
        <dc:format>image/svg+xml</dc:format>
        <dc:type
           rdf:resource="http://purl.org/dc/dcmitype/StillImage" />
        <dc:title />
      </cc:Work>
    </rdf:RDF>
  </metadata>
  <g
     inkscape:label="Capa 1"
     inkscape:groupmode="layer"
     id="layer1"
     transform="translate(0,-1004.3622)">
    <rect
       style="fill:url(#linearGradient3801-7);fill-opacity:1;stroke:none"
       id="rect2991"
       width="48"
       height="48"
       x="0"
       y="-1052.3622"
       ry="1.9445436"
       transform="scale(1,-1)" />
    <g
       id="g3842"
       transform="matrix(0.8295844,0,0,0.8295844,15.036557,174.23777)">
      <rect
         ry="0"
         y="1017.5764"
         x="19.975765"
         height="22.941753"
         width="9.9638348"
         id="rect3792"
         style="fill:#000000;fill-opacity:0.67021269;stroke:none" />
      <rect
         style="fill:url(#linearGradient3812);fill-opacity:1;stroke:none"
         id="rect3794"
         width="8.8388348"
         height="21.566755"
         x="20.49795"
         y="1019.4817"
         ry="0" />
      <rect
         ry="0"
         y="1019.4817"
         x="20.49795"
         height="10.253047"
         width="8.8388348"
         id="rect3796"
         style="fill:url(#linearGradient3804);fill-opacity:1;stroke:none" />
    </g>
    <g
       id="g972"
       transform="matrix(0.73780072,0,0,0.73780072,-17.458677,263.44405)">
      <rect
         ry="0"
         y="1025.0106"
         x="32.074146"
         height="10.413999"
         width="10.413999"
         id="rect876"
         style="fill:#f04f21;fill-opacity:1;stroke:none" />
      <rect
         style="fill:#7eb801;fill-opacity:1;stroke:none"
         id="rect878"
         width="10.413999"
         height="10.413999"
         x="44.132435"
         y="1025.0106"
         ry="0" />
      <rect
         style="fill:#01a3ee;fill-opacity:1;stroke:none"
         id="rect880"
         width="10.413999"
         height="10.413999"
         x="32.074146"
         y="1037.48"
         ry="0" />
      <rect
         ry="0"
         y="1037.48"
         x="44.132435"
         height="10.413999"
         width="10.413999"
         id="rect882"
         style="fill:#feb800;fill-opacity:1;stroke:none" />
    </g>
    <g
       id="g1141"
       transform="translate(-1.0400531,0)">
      <g
         transform="matrix(0.8660254,0.5,-0.5,0.8660254,521.89527,107.00411)"
         id="g7732">
        <g
           id="g7703">
          <path
             inkscape:connector-curvature="0"
             style="opacity:0.3359375;fill:#000000;fill-opacity:1;stroke:none;display:inline"
             d="m 36.885078,1016.8575 c -0.523522,0 -0.937925,0.4143 -0.937925,0.9379 0,0.03 -0.0026,0.059 0,0.089 0.0325,-0.4941 0.435627,-0.8793 0.937925,-0.8793 0.500424,0 0.902734,0.3878 0.937924,0.8793 0.0029,-0.03 0.02931,-0.057 0.02931,-0.089 C 37.852312,1017.2718 37.408598,1016.8575 36.885077,1016.8575 Z"
             id="path2589" />
          <path
             inkscape:connector-curvature="0"
             id="path2591"
             d="m 37.838819,1017.8826 c 0,0.5234 -0.4244,0.9478 -0.947921,0.9478 -0.523522,0 -0.94792,-0.4244 -0.94792,-0.9478 0,-0.5236 0.424397,-0.948 0.94792,-0.948 C 37.414419,1016.9346 37.838819,1017.359 37.838819,1017.8826 Z"
             style="fill:url(#radialGradient2595);fill-opacity:1;stroke:none;display:inline" />
          <path
             inkscape:connector-curvature="0"
             style="fill:#232323;fill-opacity:1;stroke:none;display:inline"
             d="m 36.740065,1017.3678 0,0.376 -0.376003,0 0,0.282 0.376003,0 0,0.376 0.282001,0 0,-0.376 0.423004,0 0,-0.282 -0.423004,0 0,-0.376 L 36.740065,1017.3678 Z"
             id="path2593" />
        </g>
      </g>
      <g
         id="g1119"
         transform="matrix(0.8660254,0.5,-0.5,0.8660254,482.12052,107.00411)">
        <g
           id="g1121">
          <path
             id="path1123"
             d="m 36.885078,1016.8575 c -0.523522,0 -0.937925,0.4143 -0.937925,0.9379 0,0.03 -0.0026,0.059 0,0.089 0.0325,-0.4941 0.435627,-0.8793 0.937925,-0.8793 0.500424,0 0.902734,0.3878 0.937924,0.8793 0.0029,-0.03 0.02931,-0.057 0.02931,-0.089 C 37.852312,1017.2718 37.408598,1016.8575 36.885077,1016.8575 Z"
             style="opacity:0.3359375;fill:#000000;fill-opacity:1;stroke:none;display:inline"
             inkscape:connector-curvature="0" />
          <path
             style="fill:url(#radialGradient1137);fill-opacity:1;stroke:none;display:inline"
             d="m 37.838819,1017.8826 c 0,0.5234 -0.4244,0.9478 -0.947921,0.9478 -0.523522,0 -0.94792,-0.4244 -0.94792,-0.9478 0,-0.5236 0.424397,-0.948 0.94792,-0.948 C 37.414419,1016.9346 37.838819,1017.359 37.838819,1017.8826 Z"
             id="path1125"
             inkscape:connector-curvature="0" />
          <path
             id="path1127"
             d="m 36.740065,1017.3678 0,0.376 -0.376003,0 0,0.282 0.376003,0 0,0.376 0.282001,0 0,-0.376 0.423004,0 0,-0.282 -0.423004,0 0,-0.376 L 36.740065,1017.3678 Z"
             style="fill:#232323;fill-opacity:1;stroke:none;display:inline"
             inkscape:connector-curvature="0" />
        </g>
      </g>
    </g>
    <g
       id="g1153"
       transform="translate(-0.6872389,0)">
      <g
         transform="matrix(0.96592583,0.25881905,-0.25881905,0.96592583,277.81568,36.326853)"
         id="g7698">
        <path
           inkscape:connector-curvature="0"
           style="opacity:0.3359375;fill:#000000;fill-opacity:1;stroke:none;display:inline"
           d="m 36.885078,1037.8939 c -0.523522,0 -0.937925,0.4143 -0.937925,0.9379 0,0.03 -0.0026,0.059 0,0.089 0.0325,-0.494 0.435627,-0.8792 0.937925,-0.8792 0.500424,0 0.902734,0.3877 0.937924,0.8792 0.0029,-0.03 0.02931,-0.057 0.02931,-0.089 C 37.852312,1038.3082 37.408598,1037.8939 36.885077,1037.8939 Z"
           id="path2607" />
        <path
           inkscape:connector-curvature="0"
           id="path2609"
           d="m 37.838819,1038.919 c 0,0.5234 -0.4244,0.9478 -0.947921,0.9478 -0.523522,0 -0.94792,-0.4244 -0.94792,-0.9478 0,-0.5235 0.424397,-0.948 0.94792,-0.948 C 37.414419,1037.971 37.838819,1038.3955 37.838819,1038.919 Z"
           style="fill:url(#radialGradient2615);fill-opacity:1;stroke:none;display:inline" />
        <path
           inkscape:connector-curvature="0"
           style="fill:#232323;fill-opacity:1;stroke:none;display:inline"
           d="m 36.740065,1038.4042 0,0.376 -0.376003,0 0,0.282 0.376003,0 0,0.376 0.282001,0 0,-0.376 0.423004,0 0,-0.282 -0.423004,0 0,-0.376 L 36.740065,1038.4042 Z"
           id="path2611" />
      </g>
      <g
         id="g1129"
         transform="matrix(0.96592583,0.25881905,-0.25881905,0.96592583,238.04093,36.326853)">
        <path
           id="path1131"
           d="m 36.885078,1037.8939 c -0.523522,0 -0.937925,0.4143 -0.937925,0.9379 0,0.03 -0.0026,0.059 0,0.089 0.0325,-0.494 0.435627,-0.8792 0.937925,-0.8792 0.500424,0 0.902734,0.3877 0.937924,0.8792 0.0029,-0.03 0.02931,-0.057 0.02931,-0.089 C 37.852312,1038.3082 37.408598,1037.8939 36.885077,1037.8939 Z"
           style="opacity:0.3359375;fill:#000000;fill-opacity:1;stroke:none;display:inline"
           inkscape:connector-curvature="0" />
        <path
           style="fill:url(#radialGradient1139);fill-opacity:1;stroke:none;display:inline"
           d="m 37.838819,1038.919 c 0,0.5234 -0.4244,0.9478 -0.947921,0.9478 -0.523522,0 -0.94792,-0.4244 -0.94792,-0.9478 0,-0.5235 0.424397,-0.948 0.94792,-0.948 C 37.414419,1037.971 37.838819,1038.3955 37.838819,1038.919 Z"
           id="path1133"
           inkscape:connector-curvature="0" />
        <path
           id="path1135"
           d="m 36.740065,1038.4042 0,0.376 -0.376003,0 0,0.282 0.376003,0 0,0.376 0.282001,0 0,-0.376 0.423004,0 0,-0.282 -0.423004,0 0,-0.376 L 36.740065,1038.4042 Z"
           style="fill:#232323;fill-opacity:1;stroke:none;display:inline"
           inkscape:connector-curvature="0" />
      </g>
    </g>
    <path
       inkscape:connector-curvature="0"
       style="fill:#000000;fill-opacity:0.25490196;stroke:none"
       d="m 1.9375,1004.3622 c -1.077277,0 -1.9375,0.8602 -1.9375,1.9375 l 0,44.125 c 0,1.0773 0.860223,1.9375 1.9375,1.9375 l 44.125,0 c 1.077277,0 1.9375,-0.8602 1.9375,-1.9375 l 0,-44.125 c 0,-1.0773 -0.860223,-1.9375 -1.9375,-1.9375 L 1.9375,1004.3622 z m 0.59375,0.6563 42.9375,0 c 1.048101,0 1.875,0.8268 1.875,1.875 l 0,42.9375 c 0,1.0481 -0.826899,1.875 -1.875,1.875 l -42.9375,0 c -1.048101,0 -1.875,-0.8269 -1.875,-1.875 l 0,-42.9375 C 0.65625,1005.8453 1.483149,1005.0185 2.53125,1005.0185 Z"
       id="rect4280" />
    <path
       style="opacity:0.15;fill:#ffffff;fill-opacity:1;stroke:none"
       d="m 0,1004.5181 0,48 16.78125,0 12.84375,-48 -29.625,0 z"
       id="rect3790"
       inkscape:connector-curvature="0" />
  </g>
</svg>
